{
  "MailSettings": {
    "ToAddress": "ivan.gagro87@gmail.com"
  },
  "ConnectionStrings": {
    "LinksAndTagsConnection": "Server=(localdb)\\MSSQLLocalDb;Database=LinksAndTagsDb;Trusted_Connection=true;MultipleActiveResultSets=true;"
  }
}